C:\Users\Diksha Rani\eclipse-workspace\ESE_JAVA_CODE_JESUS\mqtt-java\src\main\java\c8y\example\Robot.java
C:\Users\Diksha Rani\eclipse-workspace\ESE_JAVA_CODE_JESUS\mqtt-java\src\main\java\c8y\example\App.java
C:\Users\Diksha Rani\eclipse-workspace\ESE_JAVA_CODE_JESUS\mqtt-java\src\main\java\c8y\example\MoppingSubsystem.java
C:\Users\Diksha Rani\eclipse-workspace\ESE_JAVA_CODE_JESUS\mqtt-java\src\main\java\c8y\example\MQTTConnection.java
C:\Users\Diksha Rani\eclipse-workspace\ESE_JAVA_CODE_JESUS\mqtt-java\src\main\java\c8y\example\package-info.java
C:\Users\Diksha Rani\eclipse-workspace\ESE_JAVA_CODE_JESUS\mqtt-java\src\main\java\c8y\example\VacuumSubsystem.java
